EESchema Schematic File Version 4
LIBS:PiHat-cache
EELAYER 29 0
EELAYER END
$Descr A4 11693 8268
encoding utf-8
Sheet 1 1
Title ""
Date ""
Rev ""
Comp ""
Comment1 ""
Comment2 ""
Comment3 ""
Comment4 ""
$EndDescr
$Comp
L Regulator_Switching:LM2576T-5 U1
U 1 1 60B929A2
P 4650 4750
F 0 "U1" H 4650 5117 50  0000 C CNN
F 1 "LM2576T-5" H 4650 5026 50  0000 C CNN
F 2 "Package_TO_SOT_THT:TO-220-5_Vertical" H 4650 4500 50  0001 L CIN
F 3 "http://www.ti.com/lit/ds/symlink/lm2576.pdf" H 4650 4750 50  0001 C CNN
	1    4650 4750
	1    0    0    -1  
$EndComp
$Comp
L pspice:C C1
U 1 1 60B95B92
P 3400 5000
F 0 "C1" H 3578 5046 50  0000 L CNN
F 1 "100u" H 3578 4955 50  0000 L CNN
F 2 "Capacitor_THT:CP_Radial_D4.0mm_P2.00mm" H 3400 5000 50  0001 C CNN
F 3 "~" H 3400 5000 50  0001 C CNN
	1    3400 5000
	1    0    0    -1  
$EndComp
Wire Wire Line
	3400 4750 3400 4650
Wire Wire Line
	3400 4650 3650 4650
$Comp
L Connector:Conn_01x02_Male J2
U 1 1 60B98E77
P 3950 3950
F 0 "J2" V 4012 3994 50  0000 L CNN
F 1 "Conn_01x02_Male" V 4103 3994 50  0000 L CNN
F 2 "Connector_PinHeader_2.54mm:PinHeader_2x01_P2.54mm_Vertical" H 3950 3950 50  0001 C CNN
F 3 "~" H 3950 3950 50  0001 C CNN
	1    3950 3950
	0    1    1    0   
$EndComp
Wire Wire Line
	3950 4150 3950 4650
Connection ~ 3950 4650
Wire Wire Line
	3950 4650 4150 4650
$Comp
L Connector:USB_B_Micro J1
U 1 1 60B9B9F3
P 3800 5650
F 0 "J1" H 3857 6117 50  0000 C CNN
F 1 "USB_B_Micro" H 3857 6026 50  0000 C CNN
F 2 "Connector_USB:USB_Micro-B_Molex-105017-0001" H 3950 5600 50  0001 C CNN
F 3 "~" H 3950 5600 50  0001 C CNN
	1    3800 5650
	1    0    0    -1  
$EndComp
Wire Wire Line
	5400 5650 5400 4650
Wire Wire Line
	5400 4650 5150 4650
Wire Wire Line
	5800 4650 5400 4650
Connection ~ 5400 4650
Wire Wire Line
	5800 4650 6000 4650
Connection ~ 5800 4650
$Comp
L pspice:C C2
U 1 1 60BA71A4
P 6050 5800
F 0 "C2" V 5735 5800 50  0000 C CNN
F 1 "1m" V 5826 5800 50  0000 C CNN
F 2 "Capacitor_THT:CP_Radial_D4.0mm_P2.00mm" H 6050 5800 50  0001 C CNN
F 3 "~" H 6050 5800 50  0001 C CNN
	1    6050 5800
	0    1    1    0   
$EndComp
$Comp
L Device:L L1
U 1 1 60BA9F6C
P 5550 6250
F 0 "L1" V 5369 6250 50  0000 C CNN
F 1 "100u" V 5460 6250 50  0000 C CNN
F 2 "Inductor_THT:L_Axial_L5.3mm_D2.2mm_P7.62mm_Horizontal_Vishay_IM-1" H 5550 6250 50  0001 C CNN
F 3 "~" H 5550 6250 50  0001 C CNN
	1    5550 6250
	0    1    1    0   
$EndComp
Wire Wire Line
	5800 4650 5800 4950
Wire Wire Line
	5800 5250 5800 5800
Wire Wire Line
	5800 5800 5800 6250
Wire Wire Line
	5800 6250 5700 6250
Connection ~ 5800 5800
Wire Wire Line
	5400 6250 5200 6250
Wire Wire Line
	5200 6250 5200 6350
Wire Wire Line
	5200 6250 5150 6250
Wire Wire Line
	5150 6250 5150 4850
Connection ~ 5200 6250
Wire Wire Line
	4550 5650 5400 5650
$Comp
L power:GND #PWR01
U 1 1 60BAF020
P 3400 5250
F 0 "#PWR01" H 3400 5000 50  0001 C CNN
F 1 "GND" H 3405 5077 50  0000 C CNN
F 2 "" H 3400 5250 50  0001 C CNN
F 3 "" H 3400 5250 50  0001 C CNN
	1    3400 5250
	1    0    0    -1  
$EndComp
$Comp
L power:GND #PWR08
U 1 1 60BB01E6
P 6300 5800
F 0 "#PWR08" H 6300 5550 50  0001 C CNN
F 1 "GND" H 6305 5627 50  0000 C CNN
F 2 "" H 6300 5800 50  0001 C CNN
F 3 "" H 6300 5800 50  0001 C CNN
	1    6300 5800
	1    0    0    -1  
$EndComp
$Comp
L power:GND #PWR05
U 1 1 60BB1315
P 4650 5050
F 0 "#PWR05" H 4650 4800 50  0001 C CNN
F 1 "GND" H 4655 4877 50  0000 C CNN
F 2 "" H 4650 5050 50  0001 C CNN
F 3 "" H 4650 5050 50  0001 C CNN
	1    4650 5050
	1    0    0    -1  
$EndComp
$Comp
L power:GND #PWR02
U 1 1 60BB1EB7
P 3800 6050
F 0 "#PWR02" H 3800 5800 50  0001 C CNN
F 1 "GND" H 3805 5877 50  0000 C CNN
F 2 "" H 3800 6050 50  0001 C CNN
F 3 "" H 3800 6050 50  0001 C CNN
	1    3800 6050
	1    0    0    -1  
$EndComp
$Comp
L power:GND #PWR03
U 1 1 60BB267B
P 3850 4150
F 0 "#PWR03" H 3850 3900 50  0001 C CNN
F 1 "GND" H 3855 3977 50  0000 C CNN
F 2 "" H 3850 4150 50  0001 C CNN
F 3 "" H 3850 4150 50  0001 C CNN
	1    3850 4150
	1    0    0    -1  
$EndComp
$Comp
L power:GND #PWR06
U 1 1 60BB2BD5
P 5200 6650
F 0 "#PWR06" H 5200 6400 50  0001 C CNN
F 1 "GND" H 5205 6477 50  0000 C CNN
F 2 "" H 5200 6650 50  0001 C CNN
F 3 "" H 5200 6650 50  0001 C CNN
	1    5200 6650
	1    0    0    -1  
$EndComp
$Comp
L Diode:1N5819 D2
U 1 1 60BB5D08
P 5200 6500
F 0 "D2" V 5154 6579 50  0000 L CNN
F 1 "1N5819" V 5245 6579 50  0000 L CNN
F 2 "Diode_THT:D_DO-41_SOD81_P10.16mm_Horizontal" H 5200 6325 50  0001 C CNN
F 3 "http://www.vishay.com/docs/88525/1n5817.pdf" H 5200 6500 50  0001 C CNN
	1    5200 6500
	0    1    1    0   
$EndComp
$Comp
L Diode:1N5819 D1
U 1 1 60BB79A8
P 4400 5650
F 0 "D1" H 4400 5434 50  0000 C CNN
F 1 "1N5819" H 4400 5525 50  0000 C CNN
F 2 "Diode_THT:D_DO-41_SOD81_P10.16mm_Horizontal" H 4400 5475 50  0001 C CNN
F 3 "http://www.vishay.com/docs/88525/1n5817.pdf" H 4400 5650 50  0001 C CNN
	1    4400 5650
	-1   0    0    1   
$EndComp
$Comp
L Diode:1N5819 D3
U 1 1 60BB857C
P 5800 5100
F 0 "D3" V 5754 5179 50  0000 L CNN
F 1 "1N5819" V 5845 5179 50  0000 L CNN
F 2 "Diode_THT:D_DO-41_SOD81_P10.16mm_Horizontal" H 5800 4925 50  0001 C CNN
F 3 "http://www.vishay.com/docs/88525/1n5817.pdf" H 5800 5100 50  0001 C CNN
	1    5800 5100
	0    1    1    0   
$EndComp
$Comp
L power:PWR_FLAG #FLG0102
U 1 1 60BC2A19
P 6000 4650
F 0 "#FLG0102" H 6000 4725 50  0001 C CNN
F 1 "PWR_FLAG" H 6000 4823 50  0000 C CNN
F 2 "" H 6000 4650 50  0001 C CNN
F 3 "~" H 6000 4650 50  0001 C CNN
	1    6000 4650
	1    0    0    -1  
$EndComp
Connection ~ 6000 4650
$Comp
L power:PWR_FLAG #FLG0101
U 1 1 60BC3540
P 3650 4650
F 0 "#FLG0101" H 3650 4725 50  0001 C CNN
F 1 "PWR_FLAG" H 3650 4823 50  0000 C CNN
F 2 "" H 3650 4650 50  0001 C CNN
F 3 "~" H 3650 4650 50  0001 C CNN
	1    3650 4650
	1    0    0    -1  
$EndComp
Connection ~ 3650 4650
Wire Wire Line
	3650 4650 3950 4650
$Comp
L Connector_Generic:Conn_02x20_Odd_Even J3
U 1 1 60BC3EE7
P 7650 4600
F 0 "J3" H 7700 5717 50  0000 C CNN
F 1 "Conn_02x20_Odd_Even" H 7550 5600 50  0000 C CNN
F 2 "Connector_PinSocket_2.54mm:PinSocket_2x20_P2.54mm_Vertical" H 7650 4600 50  0001 C CNN
F 3 "~" H 7650 4600 50  0001 C CNN
	1    7650 4600
	1    0    0    -1  
$EndComp
$Comp
L power:GND #PWR0101
U 1 1 60BD0E30
P 7950 3900
F 0 "#PWR0101" H 7950 3650 50  0001 C CNN
F 1 "GND" V 7955 3772 50  0000 R CNN
F 2 "" H 7950 3900 50  0001 C CNN
F 3 "" H 7950 3900 50  0001 C CNN
	1    7950 3900
	0    -1   -1   0   
$EndComp
Wire Wire Line
	6000 4650 6350 4650
Wire Wire Line
	8050 3700 8050 3800
Wire Wire Line
	8050 3800 7950 3800
Wire Wire Line
	8050 3700 7950 3700
$Comp
L power:GND #PWR0102
U 1 1 60BD3EB6
P 7450 5600
F 0 "#PWR0102" H 7450 5350 50  0001 C CNN
F 1 "GND" H 7455 5427 50  0000 C CNN
F 2 "" H 7450 5600 50  0001 C CNN
F 3 "" H 7450 5600 50  0001 C CNN
	1    7450 5600
	1    0    0    -1  
$EndComp
Wire Wire Line
	4100 5450 4150 5450
Wire Wire Line
	4150 5450 4150 4850
Wire Wire Line
	4250 5650 4250 5450
Wire Wire Line
	4250 5450 4150 5450
Connection ~ 4150 5450
NoConn ~ 4100 5650
NoConn ~ 4100 5750
NoConn ~ 4100 5850
$Comp
L power:GND #PWR0103
U 1 1 60BD6A96
P 3700 6050
F 0 "#PWR0103" H 3700 5800 50  0001 C CNN
F 1 "GND" H 3705 5877 50  0000 C CNN
F 2 "" H 3700 6050 50  0001 C CNN
F 3 "" H 3700 6050 50  0001 C CNN
	1    3700 6050
	1    0    0    -1  
$EndComp
$Comp
L PiHATLib:MQ-6 U2
U 1 1 60B9850B
P 9300 2800
F 0 "U2" H 9475 3165 50  0000 C CNN
F 1 "MQ-6" H 9475 3074 50  0000 C CNN
F 2 "Sensor:MQ-6" H 9300 2800 50  0001 C CNN
F 3 "" H 9300 2800 50  0001 C CNN
	1    9300 2800
	1    0    0    -1  
$EndComp
$Comp
L power:GND #PWR0104
U 1 1 60B98DB5
P 10250 2850
F 0 "#PWR0104" H 10250 2600 50  0001 C CNN
F 1 "GND" H 10255 2677 50  0000 C CNN
F 2 "" H 10250 2850 50  0001 C CNN
F 3 "" H 10250 2850 50  0001 C CNN
	1    10250 2850
	1    0    0    -1  
$EndComp
Wire Wire Line
	10250 2850 10100 2850
$Comp
L Device:R_Small R1
U 1 1 60B99E65
P 10100 3200
F 0 "R1" H 10159 3246 50  0000 L CNN
F 1 "10K" H 10159 3155 50  0000 L CNN
F 2 "Resistor_THT:R_Axial_DIN0204_L3.6mm_D1.6mm_P5.08mm_Horizontal" H 10100 3200 50  0001 C CNN
F 3 "~" H 10100 3200 50  0001 C CNN
	1    10100 3200
	1    0    0    -1  
$EndComp
$Comp
L power:GND #PWR0105
U 1 1 60B9A341
P 10100 3300
F 0 "#PWR0105" H 10100 3050 50  0001 C CNN
F 1 "GND" H 10105 3127 50  0000 C CNN
F 2 "" H 10100 3300 50  0001 C CNN
F 3 "" H 10100 3300 50  0001 C CNN
	1    10100 3300
	1    0    0    -1  
$EndComp
Wire Wire Line
	10100 3100 10100 2950
$Comp
L power:+5V #PWR0106
U 1 1 60B9B7A3
P 8750 2750
F 0 "#PWR0106" H 8750 2600 50  0001 C CNN
F 1 "+5V" H 8765 2923 50  0000 C CNN
F 2 "" H 8750 2750 50  0001 C CNN
F 3 "" H 8750 2750 50  0001 C CNN
	1    8750 2750
	1    0    0    -1  
$EndComp
Wire Wire Line
	8750 2750 8850 2750
Wire Wire Line
	8850 2950 8850 2850
Connection ~ 8850 2750
Connection ~ 8850 2850
Wire Wire Line
	8850 2850 8850 2750
$Comp
L power:+5V #PWR0107
U 1 1 60B9CCC8
P 6350 4650
F 0 "#PWR0107" H 6350 4500 50  0001 C CNN
F 1 "+5V" H 6365 4823 50  0000 C CNN
F 2 "" H 6350 4650 50  0001 C CNN
F 3 "" H 6350 4650 50  0001 C CNN
	1    6350 4650
	1    0    0    -1  
$EndComp
$Comp
L power:+5V #PWR0108
U 1 1 60B9D3BD
P 8050 3700
F 0 "#PWR0108" H 8050 3550 50  0001 C CNN
F 1 "+5V" H 8065 3873 50  0000 C CNN
F 2 "" H 8050 3700 50  0001 C CNN
F 3 "" H 8050 3700 50  0001 C CNN
	1    8050 3700
	1    0    0    -1  
$EndComp
Connection ~ 8050 3700
Text Label 10100 2750 0    50   ~ 0
MQ6_Analog
Text Label 6850 5350 2    50   ~ 0
MQ6_Analog
$Comp
L Switch:SW_Push SW1
U 1 1 60BA1431
P 10300 4100
F 0 "SW1" H 10300 4385 50  0000 C CNN
F 1 "SW_Push" H 10300 4294 50  0000 C CNN
F 2 "Button_Switch_THT:SW_PUSH_6mm" H 10300 4300 50  0001 C CNN
F 3 "~" H 10300 4300 50  0001 C CNN
	1    10300 4100
	1    0    0    -1  
$EndComp
$Comp
L Switch:SW_Push SW2
U 1 1 60BA22BE
P 10300 4450
F 0 "SW2" H 10300 4735 50  0000 C CNN
F 1 "SW_Push" H 10300 4644 50  0000 C CNN
F 2 "Button_Switch_THT:SW_PUSH_6mm" H 10300 4650 50  0001 C CNN
F 3 "~" H 10300 4650 50  0001 C CNN
	1    10300 4450
	1    0    0    -1  
$EndComp
$Comp
L power:GND #PWR0109
U 1 1 60BA2E37
P 9950 4100
F 0 "#PWR0109" H 9950 3850 50  0001 C CNN
F 1 "GND" H 9955 3927 50  0000 C CNN
F 2 "" H 9950 4100 50  0001 C CNN
F 3 "" H 9950 4100 50  0001 C CNN
	1    9950 4100
	1    0    0    -1  
$EndComp
$Comp
L power:GND #PWR0110
U 1 1 60BA2FE3
P 9950 4450
F 0 "#PWR0110" H 9950 4200 50  0001 C CNN
F 1 "GND" H 9955 4277 50  0000 C CNN
F 2 "" H 9950 4450 50  0001 C CNN
F 3 "" H 9950 4450 50  0001 C CNN
	1    9950 4450
	1    0    0    -1  
$EndComp
Wire Wire Line
	9950 4100 10100 4100
Wire Wire Line
	9950 4450 10100 4450
Text Label 10500 4100 0    50   ~ 0
SW1
Text Label 10500 4450 0    50   ~ 0
SW2
Text Label 7450 4300 2    50   ~ 0
SW1
Text Label 7450 4200 2    50   ~ 0
SW2
$Comp
L Device:LED D4
U 1 1 60BA57D9
P 8600 4300
F 0 "D4" V 8639 4183 50  0000 R CNN
F 1 "LED" V 8548 4183 50  0000 R CNN
F 2 "LED_THT:LED_D3.0mm" H 8600 4300 50  0001 C CNN
F 3 "~" H 8600 4300 50  0001 C CNN
	1    8600 4300
	0    -1   -1   0   
$EndComp
$Comp
L Device:LED D5
U 1 1 60BA6508
P 9000 4300
F 0 "D5" V 9039 4183 50  0000 R CNN
F 1 "LED" V 8948 4183 50  0000 R CNN
F 2 "LED_THT:LED_D3.0mm" H 9000 4300 50  0001 C CNN
F 3 "~" H 9000 4300 50  0001 C CNN
	1    9000 4300
	0    -1   -1   0   
$EndComp
$Comp
L Device:LED D6
U 1 1 60BA6EA2
P 9400 4300
F 0 "D6" V 9439 4183 50  0000 R CNN
F 1 "LED" V 9348 4183 50  0000 R CNN
F 2 "LED_THT:LED_D3.0mm" H 9400 4300 50  0001 C CNN
F 3 "~" H 9400 4300 50  0001 C CNN
	1    9400 4300
	0    -1   -1   0   
$EndComp
$Comp
L Device:R_Small R2
U 1 1 60BA7211
P 8600 4050
F 0 "R2" H 8659 4096 50  0000 L CNN
F 1 "330R" H 8659 4005 50  0000 L CNN
F 2 "Resistor_THT:R_Axial_DIN0204_L3.6mm_D1.6mm_P5.08mm_Horizontal" H 8600 4050 50  0001 C CNN
F 3 "~" H 8600 4050 50  0001 C CNN
	1    8600 4050
	1    0    0    -1  
$EndComp
$Comp
L Device:R_Small R3
U 1 1 60BA7B00
P 9000 4050
F 0 "R3" H 9059 4096 50  0000 L CNN
F 1 "330R" H 9059 4005 50  0000 L CNN
F 2 "Resistor_THT:R_Axial_DIN0204_L3.6mm_D1.6mm_P5.08mm_Horizontal" H 9000 4050 50  0001 C CNN
F 3 "~" H 9000 4050 50  0001 C CNN
	1    9000 4050
	1    0    0    -1  
$EndComp
$Comp
L Device:R_Small R4
U 1 1 60BA7CDA
P 9400 4050
F 0 "R4" H 9459 4096 50  0000 L CNN
F 1 "330R" H 9459 4005 50  0000 L CNN
F 2 "Resistor_THT:R_Axial_DIN0204_L3.6mm_D1.6mm_P5.08mm_Horizontal" H 9400 4050 50  0001 C CNN
F 3 "~" H 9400 4050 50  0001 C CNN
	1    9400 4050
	1    0    0    -1  
$EndComp
$Comp
L power:GND #PWR0111
U 1 1 60BA85A0
P 8600 4450
F 0 "#PWR0111" H 8600 4200 50  0001 C CNN
F 1 "GND" H 8605 4277 50  0000 C CNN
F 2 "" H 8600 4450 50  0001 C CNN
F 3 "" H 8600 4450 50  0001 C CNN
	1    8600 4450
	1    0    0    -1  
$EndComp
$Comp
L power:GND #PWR0112
U 1 1 60BA8732
P 9000 4450
F 0 "#PWR0112" H 9000 4200 50  0001 C CNN
F 1 "GND" H 9005 4277 50  0000 C CNN
F 2 "" H 9000 4450 50  0001 C CNN
F 3 "" H 9000 4450 50  0001 C CNN
	1    9000 4450
	1    0    0    -1  
$EndComp
$Comp
L power:GND #PWR0113
U 1 1 60BA8CBC
P 9400 4450
F 0 "#PWR0113" H 9400 4200 50  0001 C CNN
F 1 "GND" H 9405 4277 50  0000 C CNN
F 2 "" H 9400 4450 50  0001 C CNN
F 3 "" H 9400 4450 50  0001 C CNN
	1    9400 4450
	1    0    0    -1  
$EndComp
Text Label 8600 3950 0    50   ~ 0
LED1
Text Label 9000 3950 0    50   ~ 0
LED2
Text Label 9400 3950 0    50   ~ 0
LED3
Text Label 7450 5100 2    50   ~ 0
LED1
Text Label 7450 5200 2    50   ~ 0
LED2
Text Label 7450 5300 2    50   ~ 0
LED3
NoConn ~ 7950 4000
NoConn ~ 7950 4100
NoConn ~ 7950 4200
NoConn ~ 7950 4400
NoConn ~ 7950 4500
NoConn ~ 7950 4700
NoConn ~ 7950 4800
NoConn ~ 7950 4900
NoConn ~ 7950 5000
NoConn ~ 7950 5200
NoConn ~ 7950 5400
NoConn ~ 7950 5500
NoConn ~ 7950 5600
NoConn ~ 7450 5500
NoConn ~ 7450 5400
NoConn ~ 7450 5000
NoConn ~ 7450 4800
NoConn ~ 7450 4700
NoConn ~ 7450 4600
NoConn ~ 7450 4500
NoConn ~ 7450 4000
NoConn ~ 7450 3900
NoConn ~ 7450 3800
NoConn ~ 7450 3700
$Comp
L Mechanical:MountingHole H1
U 1 1 60BC4FCA
P 2500 2550
F 0 "H1" H 2600 2596 50  0000 L CNN
F 1 "MountingHole" H 2600 2505 50  0000 L CNN
F 2 "MountingHole:MountingHole_2.7mm_M2.5" H 2500 2550 50  0001 C CNN
F 3 "~" H 2500 2550 50  0001 C CNN
	1    2500 2550
	1    0    0    -1  
$EndComp
$Comp
L Mechanical:MountingHole H2
U 1 1 60BC5115
P 2500 2800
F 0 "H2" H 2600 2846 50  0000 L CNN
F 1 "MountingHole" H 2600 2755 50  0000 L CNN
F 2 "MountingHole:MountingHole_2.7mm_M2.5" H 2500 2800 50  0001 C CNN
F 3 "~" H 2500 2800 50  0001 C CNN
	1    2500 2800
	1    0    0    -1  
$EndComp
$Comp
L Mechanical:MountingHole H3
U 1 1 60BC5692
P 2500 3050
F 0 "H3" H 2600 3096 50  0000 L CNN
F 1 "MountingHole" H 2600 3005 50  0000 L CNN
F 2 "MountingHole:MountingHole_2.7mm_M2.5" H 2500 3050 50  0001 C CNN
F 3 "~" H 2500 3050 50  0001 C CNN
	1    2500 3050
	1    0    0    -1  
$EndComp
$Comp
L Mechanical:MountingHole H4
U 1 1 60BC5CB9
P 2500 3300
F 0 "H4" H 2600 3346 50  0000 L CNN
F 1 "MountingHole" H 2600 3255 50  0000 L CNN
F 2 "MountingHole:MountingHole_2.7mm_M2.5" H 2500 3300 50  0001 C CNN
F 3 "~" H 2500 3300 50  0001 C CNN
	1    2500 3300
	1    0    0    -1  
$EndComp
$Comp
L power:GND #PWR0114
U 1 1 60C3C886
P 7950 5100
F 0 "#PWR0114" H 7950 4850 50  0001 C CNN
F 1 "GND" V 7955 4972 50  0000 R CNN
F 2 "" H 7950 5100 50  0001 C CNN
F 3 "" H 7950 5100 50  0001 C CNN
	1    7950 5100
	0    -1   -1   0   
$EndComp
$Comp
L power:GND #PWR0115
U 1 1 60C3D3F6
P 7950 5300
F 0 "#PWR0115" H 7950 5050 50  0001 C CNN
F 1 "GND" V 7955 5172 50  0000 R CNN
F 2 "" H 7950 5300 50  0001 C CNN
F 3 "" H 7950 5300 50  0001 C CNN
	1    7950 5300
	0    -1   -1   0   
$EndComp
$Comp
L power:GND #PWR0116
U 1 1 60C3DAF5
P 7950 4600
F 0 "#PWR0116" H 7950 4350 50  0001 C CNN
F 1 "GND" V 7955 4472 50  0000 R CNN
F 2 "" H 7950 4600 50  0001 C CNN
F 3 "" H 7950 4600 50  0001 C CNN
	1    7950 4600
	0    -1   -1   0   
$EndComp
$Comp
L power:GND #PWR0117
U 1 1 60C3E0B7
P 7950 4300
F 0 "#PWR0117" H 7950 4050 50  0001 C CNN
F 1 "GND" V 7955 4172 50  0000 R CNN
F 2 "" H 7950 4300 50  0001 C CNN
F 3 "" H 7950 4300 50  0001 C CNN
	1    7950 4300
	0    -1   -1   0   
$EndComp
$Comp
L power:GND #PWR0118
U 1 1 60C3E647
P 7450 4900
F 0 "#PWR0118" H 7450 4650 50  0001 C CNN
F 1 "GND" V 7455 4772 50  0000 R CNN
F 2 "" H 7450 4900 50  0001 C CNN
F 3 "" H 7450 4900 50  0001 C CNN
	1    7450 4900
	0    1    1    0   
$EndComp
$Comp
L power:GND #PWR0119
U 1 1 60C3EB9F
P 7450 4100
F 0 "#PWR0119" H 7450 3850 50  0001 C CNN
F 1 "GND" V 7455 3972 50  0000 R CNN
F 2 "" H 7450 4100 50  0001 C CNN
F 3 "" H 7450 4100 50  0001 C CNN
	1    7450 4100
	0    1    1    0   
$EndComp
Text Notes 7450 3450 0    50   ~ 0
Pi Zero Pinout\n\n
Text Notes 8850 3700 0    50   ~ 0
Display LEDs\n
Text Notes 9700 3700 0    50   ~ 0
Reset and test switch buttons\n
Text Notes 4100 3750 0    50   ~ 0
Voltage regulator and UPS circuit
Text Notes 3400 3900 0    50   ~ 0
Battery connection header
Text Notes 9000 2300 0    50   ~ 0
MQ-6 Gas sensor circuit
Text Notes 7350 7500 0    50   ~ 0
Gas sensor with UPS backup power PiHat for Pi Zero\n
Text Notes 8250 7650 0    50   ~ 0
11/06/2021
Text Notes 7000 6900 0    50   ~ 0
The above schematic shows the entire circuit of the PiHat made\nup of the labelled sub-systems seen above.
Text Notes 7450 7250 0    50   ~ 0
Version 2.0
$EndSCHEMATC
